https://github.com/SeleniumHQ/selenium/blob/master/py/docs/source/index.rst

安裝
	pip install -U selenium 
		-U : update
	
------------------------------------------------------------------------------------------------

需要安裝web driver

	Chrome: 	https://sites.google.com/a/chromium.org/chromedriver/downloads
	Edge: 	https://developer.microsoft.com/en-us/microsoft-edge/tools/webdriver/
	Firefox: 	https://github.com/mozilla/geckodriver/releases
	Safari: 	https://webkit.org/blog/6900/webdriver-support-in-safari-10/

	全部在這 https://www.selenium.dev/documentation/en/getting_started_with_webdriver/browsers/
	

------------------------------------------------------------------------------------------------

Chrome 下載driver
	http://chromedriver.chromium.org/downloads  
	要開啟瀏覽器看"說明"->"關於GoogleChrome"要看版本 
	兩者要match

------------------------------------------------------------------------------------------------
IE 下載derver
	http://selenium-release.storage.googleapis.com/index.html?path=3.141/
	https://www.selenium.dev/downloads/

------------------------------------------------------------------------------------------------

web driver 環境變數設法
	PATH 加入 geckodriver 所存在的"目錄"
	
------------------------------------------------------------------------------------------------
------------------------------------------------------------------------------------------------
------------------------------------------------------------------------------------------------
------------------------------------------------------------------------------------------------
------------------------------------------------------------------------------------------------
------------------------------------------------------------------------------------------------
------------------------------------------------------------------------------------------------