「CLIP STUDIO PAINT PRO for Windows/macOS (繁體中文, 下載版, 一次付清, 限時特惠)」的運送資訊（MyCommerce Share-it 訂單編號： 731419843）

 
NoReply MyCommerce <noreply@mycommerce.com> 
	上午2:09 (15 分鐘前)
	
	
寄給 我 
 


敬愛的張 純毓 先生/女士：
感謝您對CELSYS, Inc.的授權經銷商MyCommerce Share-it下達訂單。 
您的MyCommerce Share-it訂單編號： 731419843
已從您的信用卡 (Visa) 扣款TWD700.00。 
請注意，您的信用卡帳單上將會列出「DRI*CELSYS, Inc.」。
________________________________________
產品運送詳細資料
CLIP STUDIO PAINT PRO for Windows/macOS (繁體中文, 下載版, 一次付清, 限時特惠)
用以解除產品鎖定的授權金鑰
產品將授權予「純毓 張」。
請注意︰您將不會收到郵遞寄送。
「CLIP STUDIO PAINT PRO for Windows/macOS (繁體中文, 下載版, 一次付清, 限時特惠)"」的授權金鑰列於下方。您將需要授權金鑰，完成處理程序並啟動產品。該授權金鑰及下列文字由軟體發行者提供，且能以其他語言書寫。 
***序列號記載如下*** 

-------------------------------------------------------------- 
序號(License Key) 
-------------------------------------------------------------- 
啟動軟體時所需的序號如下。 
###########################################################
###########################################################
###########################################################
U1AxRFRQLUQwODFGQS1CRUpCOUYtREFBSExOLUhGSERGQg==
###########################################################
###########################################################
###########################################################



序號是客戶使用CLIP STUDIO PAINT所需的重要資訊。 
我們不提供序號的重新發行服務，請妥善保管。 
請使用該序號，在下載、安裝軟體後進行許可證認證。 

-------------------------------------------------------------- 
開始使用時 
-------------------------------------------------------------- 
請從下面的CLIP STUDIO.NET下載頁面下載軟體。 
安裝方法也請閱覽下述網頁。 

產品下載 
https://www.clipstudio.net/tc/dl 

如果安裝了CLIP STUDIO PAINT的最新版本，只要輸入購買的新序號進行許可證認證即可使用。許可證認證的詳細請參看安裝嚮導。 

-------------------------------------------------------------- 
CLIP STUDIO.NET　https://www.clipstudio.net/tc/ 
-------------------------------------------------------------- 

-------------------------------------------------------------- 
調查問卷 
-------------------------------------------------------------- 
請透過下面的按鈕協助填寫調查問卷。有精美壁紙贈送！ 
https://www.surveymonkey.com/s/WVFVWR5 

※您輸入的數據將作為統計資訊處理。不會作為個人資訊利用。 

在CLIP STUDIO.NET申請購買產品的客戶，將在其電子信箱收到本郵件。 
本郵件由登錄系統自動生成。 
我們不受理對本郵件的回信，敬請諒解。 

-------------------------------------------------------------- 
諮詢 
有關CLIP STUDIO.NET的諮詢，請至[用戶支援中心]詢問。 
[CELSYS在線用戶支援] 
https://support.clip-studio.com/q/ 
E-mail : tech@celsys.co.jp

________________________________________
客戶服務部
您有「訂單」、「付款」或「出貨」方面的疑問？
Answers to the most frequently asked questions / contact and your order data. If you purchased a subscription, you can manage it by going to the password-protected area in MyAccount. 
https://account.mycommerce.com/Home/Faq

您的訂單資料： 
https://account.mycommerce.com/

條款和條件: 
https://account.mycommerce.com/termsconditions.html?p=7314198438d0a954dd2ee67

您可按下列六種語言，獲得我們員工所提供的該等服務，並連同個人支援：英文、德文、法文、西班牙文、義大利文及葡萄牙文。
技術支援
若您對本產品有任何內容或技術上問題，請直接聯絡CELSYS, Inc.。 
tech@celsys.co.jp 

________________________________________
謹此 
MyCommerce Share-it 團隊敬上 / CELSYS, Inc.
________________________________________
請注意︰
本電子郵件是由郵件處理系統所建立。請勿回覆 至「寄件人」欄位中所列出的地址。 請閱讀「客戶服務」章節，取得問題的解答。

 	MyCommerce Share-it - a service of Digital River - http://www.mycommerce.com 
Digital River GmbH 
Scheidtweilerstr. 4, D-50933 Cologne, Germany 
執行董事︰Kristopher Thomas Schmidt 
商業登記︰HRB 56188 / District court of Cologne


 	




	

